BeerProduction
…
beer_taxed %>% count(tax_status)

## # A tibble: 5 x 2
##   tax_status             n
##   <chr>              <int>
## 1 Sub Total Tax-Free   144
## 2 Sub Total Taxable    144
## 3 Tax Free             428
## 4 Taxable              432
## 5 Totals               432

brewer_size

## # A tibble: 137 x 6
##     year brewer_size   n_of_brewers total_barrels taxable_removals total_shipped
##    <dbl> <chr>                <dbl>         <dbl>            <dbl>         <dbl>
##  1  2009 6,000,001 Ba           18    171232882.       159643984.       3639970
##  2  2009 1,000,001 to            4      9970404.         9592723.         14548
##  3  2009 500,001 to 1            7      4831386.         4535659.         21563
##  4  2009 100,001 to 5           27      5422156.         4469289.        128000
##  5  2009 60,001 to 10           19      1501977.         1224618.         95732
##  6  2009 30,001 to 60           32      1412245.         1233959.         14369
##  7  2009 15,001 to 30           40       895133.          750529.         19808
##  8  2009 7,501 to 15,           42       442754.          388968.           240
##  9  2009 1,001 to 7,5          357       859935.          769155.            12
## 10  2009 1 to 1,000 B         1037       400401.          371873.           123
## #  with 127 more rows

beer_states

## # A tibble: 1,872 x 4
##    state  year barrels type       
##    <chr> <dbl>   <dbl> <chr>      
##  1 AK     2008   2068. On Premises
##  2 AK     2009   2264. On Premises
##  3 AK     2010   1929. On Premises
##  4 AK     2011   2251. On Premises
##  5 AK     2012   2312. On Premises
##  6 AK     2013   2156. On Premises
##  7 AK     2014   2115. On Premises
##  8 AK     2015   4511. On Premises
##  9 AK     2016  13316. On Premises
## 10 AK     2017  15974. On Premises
## #  with 1,862 more rows
…
## # A tibble: 1 x 2
##   data_type                    n
##   <chr>                    <int>
## 1 Pounds of Materials Used  1152

Tidymetrics

# approx time 17min
brewing_materials %>%
  rename(material = type) %>%
  filter(!stringr::str_detect(material_type, "Total")) %>%
  tidymetrics::cross_by_dimensions(material_type, material) %>%
  distinct (material_type, material)

## # A tibble: 21 x 2
## # Groups:   material_type, material [21]
##    material_type      material                  
##    <chr>              <chr>                     
##  1 All                All                       
##  2 Grain Products     All                       
##  3 Non-Grain Products All                       
##  4 All                Malt and malt products    
##  5 All                Corn and corn products    
##  6 All                Rice and rice products    
##  7 All                Barley and barley products
##  8 All                Wheat and wheat products  
##  9 All                Sugar and syrups          
## 10 All                Hops (dry)                
## #  with 11 more rows
…
