Tidy Tuesday Screencasts - Squirrels in NYC
…
S may be more likely to be gray at higher north in the park you go

Exploring fur colors

nyc_squirrels %>%
  count(primary_fur_color, highlight_fur_color, sort =T)

## # A tibble: 22 x 3
##    primary_fur_color highlight_fur_color     n
##    <chr>             <chr>               <int>
##  1 Gray              <NA>                  895
##  2 Gray              Cinnamon              752
##  3 Gray              White                 489
##  4 Gray              Cinnamon, White       265
##  5 Cinnamon          Gray                  162
##  6 Cinnamon          White                  94
##  7 Black             <NA>                   74
##  8 Cinnamon          <NA>                   62
##  9 Cinnamon          Gray, White            58
## 10 <NA>              <NA>                   55
## # ... with 12 more rows
…
nyc_squirrels %>% count(other_activities, sort=T)

## # A tibble: 308 x 2
##    other_activities     n
##    <chr>            <int>
##  1 <NA>              2586
##  2 digging             19
##  3 sitting             16
##  4 walking             14
##  5 burying             12
##  6 playing             11
##  7 jumping              6
##  8 grooming             5
##  9 cleaning             4
## 10 hopping              4
## # ... with 298 more rows

nyc_squirrels %>% select(ends_with("ing"))

## # A tibble: 3,023 x 5
##    running chasing climbing eating foraging
##    <lgl>   <lgl>   <lgl>    <lgl>  <lgl>   
##  1 FALSE   FALSE   FALSE    FALSE  FALSE   
##  2 TRUE    FALSE   FALSE    FALSE  FALSE   
##  3 FALSE   FALSE   TRUE     FALSE  FALSE   
##  4 FALSE   FALSE   TRUE     FALSE  FALSE   
##  5 FALSE   FALSE   FALSE    FALSE  FALSE   
##  6 FALSE   FALSE   FALSE    FALSE  FALSE   
##  7 TRUE    TRUE    FALSE    FALSE  FALSE   
##  8 FALSE   FALSE   FALSE    FALSE  TRUE    
##  9 FALSE   FALSE   FALSE    FALSE  TRUE    
## 10 FALSE   FALSE   FALSE    TRUE   TRUE    
## # ... with 3,013 more rows

# Gather column names ending in "ing" into a column called 'activity' then label that 'activity' as true or false in column 'doing'. The Gather command will use the values in the '*ing' columns for the 'doing' column
nyc_squirrels %>% gather(activity, doing, ends_with("ing")) %>% select(activity, doing)

## # A tibble: 15,115 x 2
##    activity doing
##    <chr>    <lgl>
##  1 running  FALSE
##  2 running  TRUE 
##  3 running  FALSE
##  4 running  FALSE
##  5 running  FALSE
##  6 running  FALSE
##  7 running  TRUE 
##  8 running  FALSE
##  9 running  FALSE
## 10 running  FALSE
## # ... with 15,105 more rows
…
