Ten Tremendous Tricks
…
3. add_count()

Add column to diamonds showing the number of diamonds in each Clarity group

diamonds %>% add_count(clarity)

## # A tibble: 53,940 x 11
##    carat cut       color clarity depth table price     x     y     z     n
##    <dbl> <ord>     <ord> <ord>   <dbl> <dbl> <int> <dbl> <dbl> <dbl> <int>
##  1 0.23  Ideal     E     SI2      61.5    55   326  3.95  3.98  2.43  9194
##  2 0.21  Premium   E     SI1      59.8    61   326  3.89  3.84  2.31 13065
##  3 0.23  Good      E     VS1      56.9    65   327  4.05  4.07  2.31  8171
##  4 0.290 Premium   I     VS2      62.4    58   334  4.2   4.23  2.63 12258
##  5 0.31  Good      J     SI2      63.3    58   335  4.34  4.35  2.75  9194
##  6 0.24  Very Good J     VVS2     62.8    57   336  3.94  3.96  2.48  5066
##  7 0.24  Very Good I     VVS1     62.3    57   336  3.95  3.98  2.47  3655
##  8 0.26  Very Good H     SI1      61.9    55   337  4.07  4.11  2.53 13065
##  9 0.22  Fair      E     VS2      65.1    61   337  3.87  3.78  2.49 12258
## 10 0.23  Very Good H     VS1      59.4    61   338  4     4.05  2.39  8171
## #  with 53,930 more rows

# select Clarity with > 3000 diamonds
diamonds %>% add_count(clarity) %>% filter(n>3000)

## # A tibble: 51,409 x 11
##    carat cut       color clarity depth table price     x     y     z     n
##    <dbl> <ord>     <ord> <ord>   <dbl> <dbl> <int> <dbl> <dbl> <dbl> <int>
##  1 0.23  Ideal     E     SI2      61.5    55   326  3.95  3.98  2.43  9194
##  2 0.21  Premium   E     SI1      59.8    61   326  3.89  3.84  2.31 13065
##  3 0.23  Good      E     VS1      56.9    65   327  4.05  4.07  2.31  8171
##  4 0.290 Premium   I     VS2      62.4    58   334  4.2   4.23  2.63 12258
##  5 0.31  Good      J     SI2      63.3    58   335  4.34  4.35  2.75  9194
##  6 0.24  Very Good J     VVS2     62.8    57   336  3.94  3.96  2.48  5066
##  7 0.24  Very Good I     VVS1     62.3    57   336  3.95  3.98  2.47  3655
##  8 0.26  Very Good H     SI1      61.9    55   337  4.07  4.11  2.53 13065
##  9 0.22  Fair      E     VS2      65.1    61   337  3.87  3.78  2.49 12258
## 10 0.23  Very Good H     VS1      59.4    61   338  4     4.05  2.39  8171
## #  with 51,399 more rows
…
x = mtcars %>% tbl_df() %>% unite(mpg, cyl, col = "temp") %>% mutate(mpgcyl = temp) %>% select(temp, mpgcyl)
x

## # A tibble: 32 x 2
##    temp   mpgcyl
##    <chr>  <chr> 
##  1 21_6   21_6  
##  2 21_6   21_6  
##  3 22.8_4 22.8_4
##  4 21.4_6 21.4_6
##  5 18.7_8 18.7_8
##  6 18.1_6 18.1_6
##  7 14.3_8 14.3_8
##  8 24.4_4 24.4_4
##  9 22.8_4 22.8_4
## 10 19.2_6 19.2_6
## #  with 22 more rows

x %>% separate(mpgcyl, c("mpg", "cyl"), sep = "_")

## # A tibble: 32 x 3
##    temp   mpg   cyl  
##    <chr>  <chr> <chr>
##  1 21_6   21    6    
##  2 21_6   21    6    
##  3 22.8_4 22.8  4    
##  4 21.4_6 21.4  6    
##  5 18.7_8 18.7  8    
##  6 18.1_6 18.1  6    
##  7 14.3_8 14.3  8    
##  8 24.4_4 24.4  4    
##  9 22.8_4 22.8  4    
## 10 19.2_6 19.2  6    
## #  with 22 more rows

10. extract()

From tidyr. Useful for pulling out patterns embedded in a field. Here Im splitting cut into the first and second word.

diamonds

## # A tibble: 53,940 x 10
##    carat cut       color clarity depth table price     x     y     z
##    <dbl> <ord>     <ord> <ord>   <dbl> <dbl> <int> <dbl> <dbl> <dbl>
##  1 0.23  Ideal     E     SI2      61.5    55   326  3.95  3.98  2.43
##  2 0.21  Premium   E     SI1      59.8    61   326  3.89  3.84  2.31
##  3 0.23  Good      E     VS1      56.9    65   327  4.05  4.07  2.31
##  4 0.290 Premium   I     VS2      62.4    58   334  4.2   4.23  2.63
##  5 0.31  Good      J     SI2      63.3    58   335  4.34  4.35  2.75
##  6 0.24  Very Good J     VVS2     62.8    57   336  3.94  3.96  2.48
##  7 0.24  Very Good I     VVS1     62.3    57   336  3.95  3.98  2.47
##  8 0.26  Very Good H     SI1      61.9    55   337  4.07  4.11  2.53
##  9 0.22  Fair      E     VS2      65.1    61   337  3.87  3.78  2.49
## 10 0.23  Very Good H     VS1      59.4    61   338  4     4.05  2.39
## #  with 53,930 more rows

diamonds %>% tidyr::extract(cut, c("firstword","secondword"), "(.*) (.*)", convert=T)

## # A tibble: 53,940 x 11
##    carat firstword secondword color clarity depth table price     x     y     z
##    <dbl> <chr>     <chr>      <ord> <ord>   <dbl> <dbl> <int> <dbl> <dbl> <dbl>
##  1 0.23  <NA>      <NA>       E     SI2      61.5    55   326  3.95  3.98  2.43
##  2 0.21  <NA>      <NA>       E     SI1      59.8    61   326  3.89  3.84  2.31
##  3 0.23  <NA>      <NA>       E     VS1      56.9    65   327  4.05  4.07  2.31
##  4 0.290 <NA>      <NA>       I     VS2      62.4    58   334  4.2   4.23  2.63
##  5 0.31  <NA>      <NA>       J     SI2      63.3    58   335  4.34  4.35  2.75
##  6 0.24  Very      Good       J     VVS2     62.8    57   336  3.94  3.96  2.48
##  7 0.24  Very      Good       I     VVS1     62.3    57   336  3.95  3.98  2.47
##  8 0.26  Very      Good       H     SI1      61.9    55   337  4.07  4.11  2.53
##  9 0.22  <NA>      <NA>       E     VS2      65.1    61   337  3.87  3.78  2.49
## 10 0.23  Very      Good       H     VS1      59.4    61   338  4     4.05  2.39
## #  with 53,930 more rows
…
